{
  "page": 1,
  "total_results": 248,
  "total_pages": 13,
  "results": [
    {
      "original_name": "Vikings",
      "genre_ids": [
        18,
        10759
      ],
      "name": "Vikings",
      "popularity": 502.345,
      "origin_country": [
        "CA"
      ],
      "vote_count": 1443,
      "first_air_date": "2013-03-03",
      "backdrop_path": "/A30ZqEoDbchvE7mCZcSp6TEwB1Q.jpg",
      "original_language": "en",
      "id": 44217,
      "vote_average": 7.5,
      "overview": "Vikings follows the adventures of Ragnar Lothbrok, the greatest hero of his age. The series tells the sagas of Ragnar's band of Viking brothers and his family, as he rises to become King of the Viking tribes. As well as being a fearless warrior, Ragnar embodies the Norse traditions of devotion to the gods. Legend has it that he was a direct descendant of Odin, the god of war and warriors.",
      "poster_path": "/94gP9uXNdbypwCLORjeurlad15Z.jpg"
    },
    {
      "original_name": "Gotham",
      "genre_ids": [
        80,
        18,
        14
      ],
      "name": "Gotham",
      "popularity": 253.457,
      "origin_country": [
        "US"
      ],
      "vote_count": 948,
      "first_air_date": "2014-09-22",
      "backdrop_path": "/mKBP1OCgCG0jw8DwVYlnYqVILtc.jpg",
      "original_language": "en",
      "id": 60708,
      "vote_average": 7,
      "overview": "Before there was Batman, there was GOTHAM. \n\nEveryone knows the name Commissioner Gordon. He is one of the crime world's greatest foes, a man whose reputation is synonymous with law and order. But what is known of Gordon's story and his rise from rookie detective to Police Commissioner? What did it take to navigate the multiple layers of corruption that secretly ruled Gotham City, the spawning ground of the world's most iconic villains? And what circumstances created them – the larger-than-life personas who would become Catwoman, The Penguin, The Riddler, Two-Face and The Joker? ",
      "poster_path": "/bfhPss2uFljdNuw6xilOLDqQ4ED.jpg"
    },
    {
      "original_name": "ソードアート・オンライン",
      "genre_ids": [
        16
      ],
      "name": "Sword Art Online",
      "popularity": 145.173,
      "origin_country": [
        "JP"
      ],
      "vote_count": 154,
      "first_air_date": "2012-07-08",
      "backdrop_path": "/1ENifuXpviC2kEZ1Ya08EyN9SYg.jpg",
      "original_language": "ja",
      "id": 45782,
      "vote_average": 7.5,
      "overview": "The players of a virtual reality MMORPG, Sword Art Online, are trapped and fighting for their very lives. After it is announced that the only way to leave the game is by beating it, Kirito—a very powerful swordsman—and his friends take on a quest to free all the minds trapped in Aincrad.",
      "poster_path": "/1i7KsXiFlhqdyRzWfTg90WkLIMY.jpg"
    },
    {
      "original_name": "The Big Bang Theory",
      "genre_ids": [
        35
      ],
      "name": "The Big Bang Theory",
      "popularity": 130.853,
      "origin_country": [
        "US"
      ],
      "vote_count": 3484,
      "first_air_date": "2007-09-24",
      "backdrop_path": "/nGsNruW3W27V6r4gkyc3iiEGsKR.jpg",
      "original_language": "en",
      "id": 1418,
      "vote_average": 6.8,
      "overview": "The Big Bang Theory is centered on five characters living in Pasadena, California: roommates Leonard Hofstadter and Sheldon Cooper; Penny, a waitress and aspiring actress who lives across the hall; and Leonard and Sheldon's equally geeky and socially awkward friends and co-workers, mechanical engineer Howard Wolowitz and astrophysicist Raj Koothrappali. The geekiness and intellect of the four guys is contrasted for comic effect with Penny's social skills and common sense.",
      "poster_path": "/ooBGRQBdbGzBxAVfExiO8r7kloA.jpg"
    },
    {
      "original_name": "The Blacklist",
      "genre_ids": [
        80,
        18,
        9648
      ],
      "name": "The Blacklist",
      "popularity": 129.309,
      "origin_country": [
        "US"
      ],
      "vote_count": 835,
      "first_air_date": "2013-09-23",
      "backdrop_path": "/fHwiAqIKragaCbNJo9Qs4lrccIN.jpg",
      "original_language": "en",
      "id": 46952,
      "vote_average": 7.1,
      "overview": "Raymond \"Red\" Reddington, one of the FBI's most wanted fugitives, surrenders in person at FBI Headquarters in Washington, D.C. He claims that he and the FBI have the same interests: bringing down dangerous criminals and terrorists. In the last two decades, he's made a list of criminals and terrorists that matter the most but the FBI cannot find because it does not know they exist. Reddington calls this \"The Blacklist\". Reddington will co-operate, but insists that he will speak only to Elizabeth Keen, a rookie FBI profiler.",
      "poster_path": "/bgbQCW4fE9b6wSOSC6Fb4FfVzsW.jpg"
    },
    {
      "original_name": "Family Guy",
      "genre_ids": [
        16,
        35
      ],
      "name": "Family Guy",
      "popularity": 128.4,
      "origin_country": [
        "US"
      ],
      "vote_count": 1336,
      "first_air_date": "1999-01-31",
      "backdrop_path": "/pH38r4TWTqq7Mcs6XAlwgzNUeJe.jpg",
      "original_language": "en",
      "id": 1434,
      "vote_average": 6.5,
      "overview": "Sick, twisted, politically incorrect and Freakin' Sweet animated series featuring the adventures of the dysfunctional Griffin family. Bumbling Peter and long-suffering Lois have three kids. Stewie (a brilliant but sadistic baby bent on killing his mother and taking over the world), Meg (the oldest, and is the most unpopular girl in town) and Chris (the middle kid, he's not very bright but has a passion for movies). The final member of the family is Brian - a talking dog and much more than a pet, he keeps Stewie in check whilst sipping Martinis and sorting through his own life issues.",
      "poster_path": "/gBGUL1UTUNmdRQT8gA1LUV4yg39.jpg"
    },
    {
      "original_name": "The Orville",
      "genre_ids": [
        35,
        18,
        10765
      ],
      "name": "The Orville",
      "popularity": 101.857,
      "origin_country": [
        "US"
      ],
      "vote_count": 282,
      "first_air_date": "2017-09-10",
      "backdrop_path": "/2Qg2fViQzWenpUaMjhv0kNhCbE9.jpg",
      "original_language": "en",
      "id": 71738,
      "vote_average": 7.2,
      "overview": "Follows the crew of the not-so-functional exploratory ship in the Earth's interstellar fleet, 400 years in the future.",
      "poster_path": "/1q2gRQ8uN8D2ythPMzd5NvsHkVf.jpg"
    },
    {
      "original_name": "Lethal Weapon",
      "genre_ids": [
        80,
        18,
        10759
      ],
      "name": "Lethal Weapon",
      "popularity": 97.312,
      "origin_country": [
        "US"
      ],
      "vote_count": 307,
      "first_air_date": "2016-09-21",
      "backdrop_path": "/yqZ5ACKeNJ30mylUEzvtWZu4pGU.jpg",
      "original_language": "en",
      "id": 67116,
      "vote_average": 7.4,
      "overview": "A slightly unhinged former Navy SEAL lands a job as a police officer in Los Angeles where he's partnered with a veteran detective trying to keep maintain a low stress level in his life.",
      "poster_path": "/jbMZkxLHVDSKiZh0HppCthRW96k.jpg"
    },
    {
      "original_name": "ワンピース",
      "genre_ids": [
        16,
        35,
        10759
      ],
      "name": "One Piece",
      "popularity": 96.158,
      "origin_country": [
        "JP"
      ],
      "vote_count": 176,
      "first_air_date": "1999-10-20",
      "backdrop_path": "/xgs7zAF5VSGAK0QstH1Q0ivybXz.jpg",
      "original_language": "ja",
      "id": 37854,
      "vote_average": 7.7,
      "overview": "Years ago, the fearsome pirate king Gol D. Roger was executed, leaving a huge pile of treasure and the famous \"One Piece\" behind. Whoever claims the \"One Piece\" will be named the new pirate king. Monkey D. Luffy, a boy who consumed one of the \"Devil's Fruits\", has it in his head that he'll follow in the footsteps of his idol, the pirate Shanks, and find the One Piece. It helps, of course, that his body has the properties of rubber and he's surrounded by a bevy of skilled fighters and thieves to help him along the way. Monkey D. Luffy brings a bunch of his crew followed by, Roronoa Zoro, Nami, Usopp, Sanji, Tony-Tony Chopper, Nico Robin, Franky, and Brook. They will do anything to get the One Piece and become King of the Pirates!",
      "poster_path": "/yeJyZkhO7WS4jJl2xqQjnRTHwuE.jpg"
    },
    {
      "original_name": "転生したらスライムだった件",
      "genre_ids": [
        16,
        10759,
        10765
      ],
      "name": "That Time I Got Reincarnated as a Slime",
      "popularity": 90.7,
      "origin_country": [
        "JP"
      ],
      "vote_count": 4,
      "first_air_date": "2018-10-02",
      "backdrop_path": "/xzjZDyqUobuJtkBljhgLH4Fdnye.jpg",
      "original_language": "ja",
      "id": 82684,
      "vote_average": 9,
      "overview": "\"Rimuru Tempest\" is the new name of a slime in a fantasy world taken by a former 37-year-old human Satou Mikami after he is killed by a passing robber. Broken free from ordinary, stale past life, his fresh adventure in a fantasy world as a slime monster with unique abilities begins.",
      "poster_path": "/mbJmGS9I4GZmfUIMDdhzKObALcP.jpg"
    },
    {
      "original_name": "The Gifted",
      "genre_ids": [
        18,
        10759,
        10765
      ],
      "name": "The Gifted",
      "popularity": 84.2,
      "origin_country": [
        "US"
      ],
      "vote_count": 212,
      "first_air_date": "2017-10-02",
      "backdrop_path": "/18inwHlpKnK9mt02wFBJoIVKXI.jpg",
      "original_language": "en",
      "id": 69629,
      "vote_average": 7,
      "overview": "A suburban couple's ordinary lives are rocked by the sudden discovery that their children possess mutant powers. Forced to go on the run from a hostile government, the family joins up with an underground network of mutants and must fight to survive.",
      "poster_path": "/nshCqszjTNuqhrB53vrSqWO18sE.jpg"
    },
    {
      "original_name": "NCIS",
      "genre_ids": [
        80,
        18,
        10759
      ],
      "name": "NCIS",
      "popularity": 79.283,
      "origin_country": [
        "US"
      ],
      "vote_count": 674,
      "first_air_date": "2003-09-23",
      "backdrop_path": "/nymeWHYQ1JaWP2wyNW5a5WHiDCd.jpg",
      "original_language": "en",
      "id": 4614,
      "vote_average": 6.7,
      "overview": "From murder and espionage to terrorism and stolen submarines, a team of special agents investigates any crime that has a shred of evidence connected to Navy and Marine Corps personnel, regardless of rank or position.",
      "poster_path": "/eoj15m14Zpf2bUWXqNIs7itZK9w.jpg"
    },
    {
      "original_name": "Modern Family",
      "genre_ids": [
        35
      ],
      "name": "Modern Family",
      "popularity": 74.574,
      "origin_country": [
        "US"
      ],
      "vote_count": 749,
      "first_air_date": "2009-09-23",
      "backdrop_path": "/snxFgPvHMcpW5f8Q3wu6uRRycww.jpg",
      "original_language": "en",
      "id": 1421,
      "vote_average": 7.3,
      "overview": "The Pritchett-Dunphy-Tucker clan is a wonderfully large and blended family. They give us an honest and often hilarious look into the sometimes warm, sometimes twisted, embrace of the modern family.",
      "poster_path": "/gLAcu4VPCAb90oJvJ4nUJc5ZBQi.jpg"
    },
    {
      "original_name": "Outlander",
      "genre_ids": [
        12,
        18,
        14,
        10749
      ],
      "name": "Outlander",
      "popularity": 70.335,
      "origin_country": [
        "US"
      ],
      "vote_count": 428,
      "first_air_date": "2014-08-09",
      "backdrop_path": "/qutOe29dCGmT2JUlLPCqlzaQIo.jpg",
      "original_language": "en",
      "id": 56570,
      "vote_average": 7.2,
      "overview": "The story of Claire Randall, a married combat nurse from 1945 who is mysteriously swept back in time to 1743, where she is immediately thrown into an unknown world where her life is threatened. When she is forced to marry Jamie, a chivalrous and romantic young Scottish warrior, a passionate affair is ignited that tears Claire's heart between two vastly different men in two irreconcilable lives.",
      "poster_path": "/ioQ0o7dOU6AD8gKIHHPX0czqgSw.jpg"
    },
    {
      "original_name": "Young Sheldon",
      "genre_ids": [
        35
      ],
      "name": "Young Sheldon",
      "popularity": 69.9,
      "origin_country": [
        "US"
      ],
      "vote_count": 126,
      "first_air_date": "2017-09-25",
      "backdrop_path": "/ttbrl8AEAcR430mOZ1i4Ab2buvI.jpg",
      "original_language": "en",
      "id": 71728,
      "vote_average": 6.9,
      "overview": "The early life of child genius Sheldon Cooper, later seen in The Big Bang Theory.",
      "poster_path": "/CM2j0YTGKQdaIhFprZVAZWSTSe.jpg"
    },
    {
      "original_name": "Ray Donovan",
      "genre_ids": [
        18
      ],
      "name": "Ray Donovan",
      "popularity": 69.389,
      "origin_country": [
        "US"
      ],
      "vote_count": 345,
      "first_air_date": "2013-06-30",
      "backdrop_path": "/ijX8tWeMBMPwEPKNpSavyd9334r.jpg",
      "original_language": "en",
      "id": 1423,
      "vote_average": 7.4,
      "overview": "Set in the sprawling mecca of the rich and famous, Ray Donovan does the dirty work for LA's top power players, and makes their problems disappear. His father's unexpected release from prison sets off a chain of events that shakes the Donovan family to its core.",
      "poster_path": "/cwJ6nLNvX62By0yoLYWFhRelPkF.jpg"
    },
    {
      "original_name": "Future Man",
      "genre_ids": [
        35,
        10765
      ],
      "name": "Future Man",
      "popularity": 64.553,
      "origin_country": [
        "US"
      ],
      "vote_count": 60,
      "first_air_date": "2017-11-14",
      "backdrop_path": "/qQxb3uVa3mhZ1pFY2DlmtdKreXd.jpg",
      "original_language": "en",
      "id": 73157,
      "vote_average": 7.4,
      "overview": "Josh Futturman, a janitor by day/world-ranked gamer by night, is tasked with preventing the extinction of humanity after mysterious visitors from the future proclaim him the key to defeating the imminent super-race invasion.",
      "poster_path": "/9P72cymABXbQKaOUBdZf6pOW64e.jpg"
    },
    {
      "original_name": "Brooklyn Nine-Nine",
      "genre_ids": [
        35,
        80
      ],
      "name": "Brooklyn Nine-Nine",
      "popularity": 63.712,
      "origin_country": [
        "US"
      ],
      "vote_count": 499,
      "first_air_date": "2013-09-17",
      "backdrop_path": "/ncC9ZgZuKOdaVm7yXinUn26Qyok.jpg",
      "original_language": "en",
      "id": 48891,
      "vote_average": 7.7,
      "overview": "A single-camera ensemble comedy following the lives of an eclectic group of detectives in a New York precinct, including one slacker who is forced to shape up when he gets a new boss.",
      "poster_path": "/7tTvREykun6WeGJ4hy7sCG9TOeP.jpg"
    },
    {
      "original_name": "Blindspot",
      "genre_ids": [
        28,
        80,
        18
      ],
      "name": "Blindspot",
      "popularity": 56.992,
      "origin_country": [
        "US"
      ],
      "vote_count": 548,
      "first_air_date": "2015-09-21",
      "backdrop_path": "/ioBqBeEN5QmNwKp37kf6ohkmJKy.jpg",
      "original_language": "en",
      "id": 62710,
      "vote_average": 6.3,
      "overview": "A vast international plot explodes when a beautiful Jane Doe is discovered naked in Times Square, completely covered in mysterious, intricate tattoos with no memory of who she is or how she got there. But there's one tattoo that is impossible to miss: the name of FBI agent Kurt Weller, emblazoned across her back. \"Jane,\" Agent Weller and the rest of the FBI quickly realize that each mark on her body is a crime to solve, leading them closer to the truth about her identity and the mysteries to be revealed.",
      "poster_path": "/iAkEexatzMUlCXlbS8Gmvlic9gQ.jpg"
    },
    {
      "original_name": "NCIS: Los Angeles",
      "genre_ids": [
        80,
        18,
        9648,
        10759
      ],
      "name": "NCIS: Los Angeles",
      "popularity": 56.546,
      "origin_country": [
        "US"
      ],
      "vote_count": 286,
      "first_air_date": "2009-09-22",
      "backdrop_path": "/dQ8xZxtZtZTq74RjTycO1RKoqi0.jpg",
      "original_language": "en",
      "id": 17610,
      "vote_average": 6.4,
      "overview": "The exploits of the Los Angeles–based Office of Special Projects (OSP), an elite division of the Naval Criminal Investigative Service that specializes in undercover assignments.",
      "poster_path": "/n00Z61xNqk84AY9oT7wTdHuYZWn.jpg"
    }
  ]
}
